"cpu_threads_conf" : 
[ 
    { "low_power_mode" : 5, "no_prefetch" : true, "affine_to_cpu" : 0 }, 
    { "low_power_mode" : 5, "no_prefetch" : true, "affine_to_cpu" : 1 }, 
    { "low_power_mode" : 5, "no_prefetch" : true, "affine_to_cpu" : 2 },
],